<?xml version="1.0" encoding="UTF-8"?>
<testsuite name="users.get.UserGetRunner" tests="2" skipped="0" failures="0" errors="0" timestamp="2024-01-02T19:11:15" hostname="mcarnine-Xubuntu" time="0.931">
  <properties/>
  <testcase name="[1:3] Get a user" classname="users.get.UserGetRunner" time="0.356"/>
  <testcase name="[2:8] Get a user list" classname="users.get.UserGetRunner" time="0.574"/>
  <system-out><![CDATA[13:11:15.305 [Test worker] DEBUG com.intuit.karate.Suite - [config] classpath:karate-config.js
13:11:15.313 [Test worker] DEBUG com.intuit.karate - request:
1 > GET https://reqres.in/api/users/1
1 > Host: reqres.in
1 > Connection: Keep-Alive
1 > User-Agent: Apache-HttpClient/4.5.13 (Java/11.0.14.1)
1 > Accept-Encoding: gzip,deflate


13:11:15.662 [Test worker] DEBUG com.intuit.karate - response time in milliseconds: 349
1 < 200
1 < Date: Tue, 02 Jan 2024 19:11:15 GMT
1 < Content-Type: application/json; charset=utf-8
1 < Transfer-Encoding: chunked
1 < Connection: keep-alive
1 < Report-To: {"group":"heroku-nel","max_age":3600,"endpoints":[{"url":"https://nel.heroku.com/reports?ts=1702889978&sid=c4c9725f-1ab0-44d8-820f-430df2718e11&s=iMizsBd4QzpwL4d0PwWvPU5yKPPEX7IBWCJLFdi%2FUk0%3D"}]}
1 < Reporting-Endpoints: heroku-nel=https://nel.heroku.com/reports?ts=1702889978&sid=c4c9725f-1ab0-44d8-820f-430df2718e11&s=iMizsBd4QzpwL4d0PwWvPU5yKPPEX7IBWCJLFdi%2FUk0%3D
1 < Nel: {"report_to":"heroku-nel","max_age":3600,"success_fraction":0.005,"failure_fraction":0.05,"response_headers":["Via"]}
1 < X-Powered-By: Express
1 < Access-Control-Allow-Origin: *
1 < Etag: W/"118-P3iKcVpIgCj9HqYeOOrGLX8qJVc"
1 < Via: 1.1 vegur
1 < Cache-Control: max-age=14400
1 < CF-Cache-Status: HIT
1 < Age: 3924
1 < Vary: Accept-Encoding
1 < Server: cloudflare
1 < CF-RAY: 83f54e8a7c762bb3-ORD
{"data":{"id":1,"email":"george.bluth@reqres.in","first_name":"George","last_name":"Bluth","avatar":"https://reqres.in/img/faces/1-image.jpg"},"support":{"url":"https://reqres.in/#support-heading","text":"To keep ReqRes free, contributions towards server costs are appreciated!"}}

13:11:15.671 [Test worker] DEBUG com.intuit.karate - request:
1 > GET https://reqres.in/api/users?page=1
1 > Host: reqres.in
1 > Connection: Keep-Alive
1 > User-Agent: Apache-HttpClient/4.5.13 (Java/11.0.14.1)
1 > Accept-Encoding: gzip,deflate


13:11:15.760 [Test worker] DEBUG com.intuit.karate - response time in milliseconds: 89
1 < 200
1 < Date: Tue, 02 Jan 2024 19:11:15 GMT
1 < Content-Type: application/json; charset=utf-8
1 < Transfer-Encoding: chunked
1 < Connection: keep-alive
1 < Report-To: {"group":"heroku-nel","max_age":3600,"endpoints":[{"url":"https://nel.heroku.com/reports?ts=1701958963&sid=c4c9725f-1ab0-44d8-820f-430df2718e11&s=gp%2B1QGHKrIu7g4QwOV4dNX5N%2F6d0Cb4Au0agIGBy45U%3D"}]}
1 < Reporting-Endpoints: heroku-nel=https://nel.heroku.com/reports?ts=1701958963&sid=c4c9725f-1ab0-44d8-820f-430df2718e11&s=gp%2B1QGHKrIu7g4QwOV4dNX5N%2F6d0Cb4Au0agIGBy45U%3D
1 < Nel: {"report_to":"heroku-nel","max_age":3600,"success_fraction":0.005,"failure_fraction":0.05,"response_headers":["Via"]}
1 < X-Powered-By: Express
1 < Access-Control-Allow-Origin: *
1 < Etag: W/"3e4-2RLXvr5wTg9YQ6aH95CkYoFNuO8"
1 < Via: 1.1 vegur
1 < Cache-Control: max-age=14400
1 < CF-Cache-Status: HIT
1 < Age: 1420
1 < Vary: Accept-Encoding
1 < Server: cloudflare
1 < CF-RAY: 83f54e8b1f4961c7-ORD
{"page":1,"per_page":6,"total":12,"total_pages":2,"data":[{"id":1,"email":"george.bluth@reqres.in","first_name":"George","last_name":"Bluth","avatar":"https://reqres.in/img/faces/1-image.jpg"},{"id":2,"email":"janet.weaver@reqres.in","first_name":"Janet","last_name":"Weaver","avatar":"https://reqres.in/img/faces/2-image.jpg"},{"id":3,"email":"emma.wong@reqres.in","first_name":"Emma","last_name":"Wong","avatar":"https://reqres.in/img/faces/3-image.jpg"},{"id":4,"email":"eve.holt@reqres.in","first_name":"Eve","last_name":"Holt","avatar":"https://reqres.in/img/faces/4-image.jpg"},{"id":5,"email":"charles.morris@reqres.in","first_name":"Charles","last_name":"Morris","avatar":"https://reqres.in/img/faces/5-image.jpg"},{"id":6,"email":"tracey.ramos@reqres.in","first_name":"Tracey","last_name":"Ramos","avatar":"https://reqres.in/img/faces/6-image.jpg"}],"support":{"url":"https://reqres.in/#support-heading","text":"To keep ReqRes free, contributions towards server costs are appreciated!"}}

---------------------------------------------------------
feature: classpath:users/get/user-get.feature
scenarios:  2 | passed:  2 | failed:  0 | time: 0.4464
---------------------------------------------------------

Karate version: 1.3.1
======================================================
elapsed:   0.64 | threads:    1 | thread time: 0.45 
features:     1 | skipped:    0 | efficiency: 0.70
scenarios:    2 | passed:     2 | failed: 0
======================================================

HTML report: (paste into browser to view) | Karate version: 1.3.1
file:///home/mcarnine/dev/KarateGradle/build/karate-reports/karate-summary.html
===================================================================

]]></system-out>
  <system-err><![CDATA[]]></system-err>
</testsuite>
